{
  "name":"UML2.2ClassDiagram",
  "uri":"https://seblog.cs.uni-kassel.de/uml",
  "prefix":"uml",
  "enumeration": [
    {
      "name":"Visibility",
      "literalValues": [ "Protected", "Public", "Private" ]
    },
    {
      "name":"Cardinality",
      "literalValues": [ "One", "Many" ]
    }
  ],
  "types": [
    {
      "name":"Element",
      "properties": [
        { "name":"id", "type":"String", "isAttr":true, "isId":true }
      ]
    },
    {
      "name":"ClassGraph",
      "superClass": [ "uml:Element" ],
      "properties": [
        { "name":"ownedClass", "type":"uml:Class", "isMany":true },
        { "name":"ownedEnumeration", "type":"uml:Enum", "isMany":true },
        { "name":"ownedAssociation", "type":"uml:Association", "isMany":true },
        { "name":"ownedSuperClass", "type":"uml:SuperClass", "isMany":true },
        { "name":"ownedRelation", "type":"uml:Relation", "isMany":true },
        { "name":"diagram", "type":"umldi:UMLDiagram" }
      ]
    },
    {
      "name":"Association",
      "superClass": [ "uml:Element" ],
      "properties": [
        { "name":"sourceClass", "type":"uml:Class", "isAttr":true, "isReference":true },
        { "name":"sourceName", "type":"String", "isAttr":true },
        { "name":"sourceCard", "type":"uml:Cardinality", "isAttr":true },
        { "name":"targetClass", "type":"uml:Class", "isAttr":true, "isReference":true },
        { "name":"targetName", "type":"String", "isAttr":true },
        { "name":"targetCard", "type":"uml:Cardinality", "isAttr":true }
      ]
    },
    {
      "name":"SuperClass",
      "superClass": [ "uml:Element" ],
      "properties": [
        { "name":"childClass", "type":"uml:Class", "isAttr":true, "isReference":true },
        { "name":"fatherClass", "type":"uml:Class", "isAttr":true, "isReference":true }
      ]
    },
    {
      "name":"Relation",
      "superClass": [ "uml:Element" ],
      "properties": [
        { "name":"parentClass", "type":"uml:Class", "isAttr":true, "isReference":true },
        { "name":"childEnum", "type":"uml:Enum", "isAttr":true, "isReference":true }
      ]
    },
    {
      "name":"Class",
      "superClass": [ "uml:Element" ],
      "properties": [
        { "name":"isAbstract", "type":"Boolean", "isAttr":true },
        { "name":"isInterface", "type":"Boolean", "isAttr":true },
        { "name":"name", "type":"String", "isAttr":true },
        { "name":"ownedOperation", "type":"uml:Operation", "isMany":true },
        { "name":"ownedProperty", "type":"uml:Property", "isMany":true }
      ]
    },
    {
      "name":"Enum",
      "superClass": [ "uml:Element" ],
      "properties": [
        { "name":"name", "type":"String", "isAttr":true },
        { "name":"ownedLiteral", "type":"uml:Literal", "isMany":true }
      ]
    },
    {
      "name":"Operation",
      "superClass": [ "uml:Element" ],
      "properties": [
        { "name":"owner", "type":"uml:Class", "isReference":true, "isAttr":true },
        { "name":"visibility", "type":"uml:Visibility", "isAttr":true },
        { "name":"returnType", "type":"String", "isAttr":true },
        { "name":"name", "type":"String", "isAttr":true },
        { "name":"parameter", "type":"uml:Property", "isMany":true }
      ]
    },
    {
      "name":"Property",
      "superClass": [ "uml:Element" ],
      "properties": [
        { "name":"owner", "type":"uml:Class", "isReference":true, "isAttr":true },
        { "name":"visibility", "type":"uml:Visibility", "isAttr":true },
        { "name":"name", "type":"String", "isAttr":true },
        { "name":"type", "type":"String", "isAttr":true }
      ]
    },
    {
      "name":"Literal",
      "superClass": [ "uml:Element" ],
      "properties": [
        { "name":"owner", "type":"uml:Class", "isReference":true, "isAttr":true },
        { "name":"name", "type":"String", "isAttr":true }
      ]
    }
  ]
}